Division,WeightClassKg,Place,Name,Team,BodyweightKg,Best3SquatKg,Best3BenchKg,Best3DeadliftKg,TotalKg,Equipment,Event,Sex,BirthDate
Boys,51.71,1,Jonah Lopez,San Antonio Memorial,49.35,117.93,56.7,131.54,306.17,Single-ply,SBD,M,
Boys,51.71,2,Aj Acosta,Comal Canyon Lake,47.76,79.38,43.09,90.72,213.19,Single-ply,SBD,M,
Boys,55.79,1,Christian Salazar,San Antonio Kennedy,55.38,145.15,77.11,158.76,381.02,Single-ply,SBD,M,
Boys,55.79,2,Donovan Hawkins,Natalia,55.29,158.76,65.77,151.95,376.48,Single-ply,SBD,M,
Boys,55.79,3,Alex Garcia #2,Cotulla,53.25,138.35,83.91,142.88,365.14,Single-ply,SBD,M,
Boys,55.79,4,Fabian Young,Blanco,51.89,102.06,63.5,136.08,301.64,Single-ply,SBD,M,
Boys,55.79,5,Amadeus Jimenez,San Antonio Kennedy,55.38,102.06,61.23,124.74,288.03,Single-ply,SBD,M,
Boys,55.79,6,Gus Puente,Devine,54.7,108.86,58.97,113.4,281.23,Single-ply,SBD,M,
Boys,59.87,1,Ernesto Consuegra,Cotulla,58.47,131.54,77.11,156.49,365.14,Single-ply,SBD,M,
Boys,59.87,2,Wyatt Owens,Natalia,59.74,131.54,61.23,145.15,337.93,Single-ply,SBD,M,
Boys,59.87,3,Noah Gilkey,Natalia,57.97,122.47,68.04,140.61,331.12,Single-ply,SBD,M,
Boys,59.87,4,Cody Heckel,Wimberley,58.11,120.2,70.31,120.2,310.71,Single-ply,SBD,M,
Boys,59.87,5,Nacious Jacquez,San Antonio Kennedy,57.24,111.13,72.57,124.74,308.44,Single-ply,SBD,M,
Boys,59.87,6,Marco Morales,Natalia,57.83,113.4,72.57,113.4,299.37,Single-ply,SBD,M,
Boys,59.87,7,David Silva,Natalia,58.24,97.52,49.9,104.33,251.74,Single-ply,SBD,M,
Boys,59.87,8,Paul Zamorano,San Antonio Kennedy,56.56,83.91,47.63,102.06,233.6,Single-ply,SBD,M,
Boys,59.87,DQ,Joseph Salazar,Cotulla,56.47,151.95,,,,Single-ply,SBD,M,
Boys,67.13,1,Christian Flores,Blanco,66.86,226.8,133.81,217.72,578.33,Single-ply,SBD,M,
Boys,67.13,2,Julian Rico,Somerset,64.82,204.12,154.22,183.7,542.04,Single-ply,SBD,M,
Boys,67.13,3,Thomas White,Wimberley,60.24,158.76,97.52,181.44,437.72,Single-ply,SBD,M,
Boys,67.13,4,Alex Villareal,San Antonio Memorial,65.68,163.29,99.79,174.63,437.72,Single-ply,SBD,M,
Boys,67.13,5,Rene Jimenez,San Antonio Memorial,61.55,140.61,86.18,158.76,385.55,Single-ply,SBD,M,
Boys,67.13,6,Zakery Martinez,Devine,65,136.08,95.25,147.42,378.75,Single-ply,SBD,M,
Boys,67.13,7,Adan Guerra,Cotulla,64.68,131.54,97.52,147.42,376.48,Single-ply,SBD,M,
Boys,67.13,8,Sonny Aldaco,Cotulla,66.68,140.61,90.72,136.08,367.41,Single-ply,SBD,M,
Boys,67.13,9,Gabe Gonzales,Blanco,64.05,136.08,74.84,151.95,362.87,Single-ply,SBD,M,
Boys,67.13,10,Jacob Garcia,Cotulla,62.1,124.74,92.99,142.88,360.61,Single-ply,SBD,M,
Boys,67.13,11,Jose Gonzalez #10,Cotulla,64.41,127.01,86.18,142.88,356.07,Single-ply,SBD,M,
Boys,67.13,12,Max Sandoval,San Antonio Kennedy,61.96,108.86,74.84,138.35,322.05,Single-ply,SBD,M,
Boys,67.13,13,Gianni Rios,Natalia,65.36,133.81,77.11,108.86,319.78,Single-ply,SBD,M,
Boys,67.13,14,Justin Rozier,Devine,65.5,124.74,63.5,131.54,319.78,Single-ply,SBD,M,
Boys,67.13,15,Reid Simpson,Comal Canyon Lake,61.64,117.93,70.31,129.27,317.51,Single-ply,SBD,M,
Boys,67.13,16,Josue Ortiz,Cotulla,63.73,106.59,74.84,124.74,306.17,Single-ply,SBD,M,
Boys,67.13,17,Roberto Hernandez,Natalia,66.13,113.4,58.97,133.81,306.17,Single-ply,SBD,M,
Boys,67.13,DQ,Marc Western,Wimberley,63.91,181.44,,,,Single-ply,SBD,M,
Boys,74.84,1,Mario Caberera,Somerset,74.71,258.55,149.69,229.06,637.3,Single-ply,SBD,M,
Boys,74.84,2,Buddy Santos,Devine,72.71,226.8,111.13,229.06,566.99,Single-ply,SBD,M,
Boys,74.84,3,Ray Rayos,Marion,73.8,192.78,124.74,242.67,560.19,Single-ply,SBD,M,
Boys,74.84,4,Adrian Vasquez,Natalia,73.39,226.8,108.86,217.72,553.38,Single-ply,SBD,M,
Boys,74.84,5,Mike Flores,Cotulla,73.75,183.7,113.4,190.51,487.61,Single-ply,SBD,M,
Boys,74.84,6,Jon Loya,Pleasanton,73.21,170.1,129.27,170.1,469.47,Single-ply,SBD,M,
Boys,74.84,7,Elijah Banda,Natalia,73.62,188.24,104.33,158.76,451.32,Single-ply,SBD,M,
Boys,74.84,8,Diego Zapata,Natalia,71.53,201.85,97.52,142.88,442.25,Single-ply,SBD,M,
Boys,74.84,9,Matt Soza,Comal Canyon Lake,73.16,154.22,99.79,163.29,417.3,Single-ply,SBD,M,
Boys,74.84,10,Chris Saldana,Natalia,68.67,165.56,77.11,167.83,410.5,Single-ply,SBD,M,
Boys,74.84,11,Thallon Olivarri,Cotulla,72.76,156.49,92.99,158.76,408.23,Single-ply,SBD,M,
Boys,74.84,12,Ron Resendiz,San Antonio Memorial,68.86,129.27,102.06,174.63,405.97,Single-ply,SBD,M,
Boys,74.84,13,Ryan Rivali,Comal Canyon Lake,71.62,154.22,90.72,156.49,401.43,Single-ply,SBD,M,
Boys,74.84,14,Jacob Guajardo,Devine,72.53,156.49,90.72,142.88,390.09,Single-ply,SBD,M,
Boys,74.84,15,Derek Wiatrek,Comal Canyon Lake,72.94,136.08,104.33,149.69,390.09,Single-ply,SBD,M,
Boys,74.84,16,Roman Gonzales #3,San Antonio Holy Cross,72.89,149.69,77.11,158.76,385.55,Single-ply,SBD,M,
Boys,74.84,17,Jerome Martinez,Cotulla,71.4,129.27,99.79,145.15,374.21,Single-ply,SBD,M,
Boys,74.84,18,Landon McDole,Natalia,71.67,131.54,95.25,140.61,367.41,Single-ply,SBD,M,
Boys,74.84,19,Danny Guillen,Devine,68.45,142.88,74.84,147.42,365.14,Single-ply,SBD,M,
Boys,74.84,20,Freddie Santiago,Comal Canyon Lake,70.85,120.2,68.04,122.47,310.71,Single-ply,SBD,M,
Boys,74.84,21,Seasar Garcia,Cotulla,72.76,108.86,79.38,117.93,306.17,Single-ply,SBD,M,
Boys,74.84,22,Donovan Navarro,San Antonio Kennedy,69.49,79.38,54.43,108.86,242.67,Single-ply,SBD,M,
Boys,74.84,23,Martin Puente,San Antonio Kennedy,68.99,52.16,43.09,88.45,183.7,Single-ply,SBD,M,
Boys,82.1,1,Joseph Hernadez,Devine,81.19,181.44,95.25,215.46,492.15,Single-ply,SBD,M,
Boys,82.1,2,Jesse Sanchez,Cotulla,78.79,181.44,117.93,190.51,489.88,Single-ply,SBD,M,
Boys,82.1,3,Darren Thomas,Cotulla,79.88,174.63,115.67,190.51,480.81,Single-ply,SBD,M,
Boys,82.1,4,Fabian Ruiz,Natalia,81.06,195.04,92.99,183.7,471.74,Single-ply,SBD,M,
Boys,82.1,5,Devin Ornales,Devine,80.56,165.56,127.01,163.29,455.86,Single-ply,SBD,M,
Boys,82.1,6,Issac Rios,Natalia,81.92,165.56,104.33,167.83,437.72,Single-ply,SBD,M,
Boys,82.1,7,Jonathan Mabs,Marion,77.79,161.03,97.52,176.9,435.45,Single-ply,SBD,M,
Boys,82.1,8,John Boyle,Wimberley,81.87,161.03,88.45,174.63,424.11,Single-ply,SBD,M,
Boys,82.1,9,Rory Hughes,Wimberley,79.11,158.76,83.91,163.29,405.97,Single-ply,SBD,M,
Boys,82.1,10,Wyatt Bates,Comal Canyon Lake,77.75,138.35,74.84,136.08,349.27,Single-ply,SBD,M,
Boys,82.1,11,Everett Penalver,San Antonio Kennedy,80.38,97.52,70.31,149.69,317.51,Single-ply,SBD,M,
Boys,89.81,1,Michael Gonzalez,Somerset,86.64,299.37,174.63,235.87,709.87,Single-ply,SBD,M,
Boys,89.81,2,Gilbert Salas,San Antonio Holy Cross,86.82,247.21,131.54,204.12,582.87,Single-ply,SBD,M,
Boys,89.81,3,Cameron Coburn,Wimberley,85.64,215.46,129.27,201.85,546.58,Single-ply,SBD,M,
Boys,89.81,4,Eric Ortega,Cotulla,89.72,192.78,124.74,197.31,514.83,Single-ply,SBD,M,
Boys,89.81,5,Kerrick Lai,Wimberley,84.87,188.24,120.2,192.78,501.22,Single-ply,SBD,M,
Boys,89.81,6,Rafael Arroyo,Wimberley,85.46,192.78,108.86,158.76,460.4,Single-ply,SBD,M,
Boys,89.81,7,Alomar Ybarra,Somerset,89.54,170.1,106.59,158.76,435.45,Single-ply,SBD,M,
Boys,89.81,8,Devin Perez,Natalia,84.59,161.03,102.06,167.83,430.91,Single-ply,SBD,M,
Boys,89.81,9,Evan Priest,Devine,85.5,170.1,86.18,174.63,430.91,Single-ply,SBD,M,
Boys,89.81,10,Adrien Perales,Cotulla,89.49,158.76,97.52,142.88,399.16,Single-ply,SBD,M,
Boys,89.81,11,Joseph Rodriguez,San Antonio Kennedy,84.28,136.08,77.11,172.37,385.55,Single-ply,SBD,M,
Boys,89.81,12,Kaeden Coltharp,Wimberley,84.1,127.01,86.18,115.67,328.85,Single-ply,SBD,M,
Boys,89.81,DQ,Jacob Olivares,San Antonio Holy Cross,86.27,204.12,,,,Single-ply,SBD,M,
Boys,99.79,1,Isaiah Valdez,Somerset,96.66,283.5,174.63,215.46,673.58,Single-ply,SBD,M,
Boys,99.79,2,Michael Martinez,Natalia,98.38,258.55,138.35,213.19,610.08,Single-ply,SBD,M,
Boys,99.79,3,Moses Wray,Wimberley,98.2,219.99,142.88,217.72,580.6,Single-ply,SBD,M,
Boys,99.79,4,Jeremiah Gomez,Natalia,90.08,192.78,117.93,213.19,523.9,Single-ply,SBD,M,
Boys,99.79,5,Eli Gonzalez,Cotulla,97.25,206.38,145.15,172.37,523.9,Single-ply,SBD,M,
Boys,99.79,6,Corbin Flores,Marion,98.66,199.58,117.93,179.17,496.68,Single-ply,SBD,M,
Boys,99.79,7,Nathaniel Ramos,Somerset,93.89,183.7,136.08,158.76,478.54,Single-ply,SBD,M,
Boys,99.79,8,Aaron Rivera,Devine,99.79,158.76,136.08,167.83,462.66,Single-ply,SBD,M,
Boys,99.79,9,Rudy Velasquez,Cotulla,97.79,140.61,99.79,147.42,387.82,Single-ply,SBD,M,
Boys,99.79,10,Gabe Geving,Comal Canyon Lake,92.71,113.4,70.31,156.49,340.19,Single-ply,SBD,M,
Boys,99.79,11,Angel Romero #2,San Antonio Kennedy,91.58,108.86,63.5,136.08,308.44,Single-ply,SBD,M,
Boys,109.77,1,Uriel Arellano,Natalia,108.73,238.14,195.04,215.46,648.64,Single-ply,SBD,M,
Boys,109.77,2,Andrew Velasquez,Cotulla,107.23,204.12,158.76,204.12,566.99,Single-ply,SBD,M,
Boys,109.77,3,Isaiah Sanchez,Natalia,105.14,219.99,108.86,215.46,544.31,Single-ply,SBD,M,
Boys,109.77,4,Blayde Martinez,Cotulla,104.01,204.12,127.01,204.12,535.24,Single-ply,SBD,M,
Boys,109.77,5,Gustavo Gomez,Natalia,101.51,235.87,131.54,163.29,530.7,Single-ply,SBD,M,
Boys,109.77,6,Alex Aguilar #3,Marion,106.5,204.12,104.33,215.46,523.9,Single-ply,SBD,M,
Boys,109.77,7,Seth Ojeda,Somerset,101.42,158.76,170.1,183.7,512.56,Single-ply,SBD,M,
Boys,109.77,8,Diego Hernandez,Natalia,108.27,201.85,108.86,179.17,489.88,Single-ply,SBD,M,
Boys,109.77,9,Abraham Vasquez,Somerset,108.95,197.31,83.91,183.7,464.93,Single-ply,SBD,M,
Boys,109.77,10,Hector Herrera,Wimberley,101.7,183.7,88.45,185.97,458.13,Single-ply,SBD,M,
Boys,109.77,11,Tyler Atenciio,Comal Canyon Lake,101.6,190.51,92.99,170.1,453.59,Single-ply,SBD,M,
Boys,109.77,12,Kaleb Linares,Cotulla,106.68,174.63,120.2,156.49,451.32,Single-ply,SBD,M,
Boys,109.77,13,Isaiah Romero,Devine,105.78,136.08,99.79,156.49,392.36,Single-ply,SBD,M,
Boys,109.77,14,Rudy Rodriguez,Devine,108.27,133.81,88.45,149.69,371.95,Single-ply,SBD,M,
Boys,109.77,15,Frank Hinojosa,Cotulla,106.64,124.74,102.06,142.88,369.68,Single-ply,SBD,M,
Boys,109.77,16,Jonathon Rodriguez,San Antonio Kennedy,101.51,108.86,74.84,170.1,353.8,Single-ply,SBD,M,
Boys,109.77,17,Cory Bowers,Comal Canyon Lake,103.6,124.74,72.57,136.08,333.39,Single-ply,SBD,M,
Boys,124.74,1,Nathan Palacio,San Antonio Memorial,116.75,254.01,149.69,240.4,644.1,Single-ply,SBD,M,
Boys,124.74,2,Paul Billalobos,Natalia,123.29,267.62,145.15,231.33,644.1,Single-ply,SBD,M,
Boys,124.74,3,Nathan Cavazos,San Antonio Holy Cross,121.93,281.23,124.74,226.8,632.76,Single-ply,SBD,M,
Boys,124.74,4,Ivan Garcia #1,San Antonio Memorial,115.08,204.12,124.74,181.44,510.29,Single-ply,SBD,M,
Boys,124.74,5,Aubrey Cummings,Natalia,123.15,201.85,129.27,136.08,467.2,Single-ply,SBD,M,
Boys,124.74,6,Joel Hernandez #2,Devine,114.03,158.76,102.06,183.7,444.52,Single-ply,SBD,M,
Boys,124.74,7,Daniel Jaimes,Blanco,114.71,183.7,102.06,158.76,444.52,Single-ply,SBD,M,
Boys,124.74,8,Jacob Delany,Devine,115.12,149.69,102.06,147.42,399.16,Single-ply,SBD,M,
Boys,124.74,9,Nicolas Rodriguez,San Antonio Kennedy,120.79,102.06,104.33,165.56,371.95,Single-ply,SBD,M,
Boys,124.74,10,Manuel Reyna,San Antonio Kennedy,111.49,127.01,72.57,167.83,367.41,Single-ply,SBD,M,
Boys,124.74,11,Josh Garry,San Antonio Kennedy,118.48,108.86,72.57,149.69,331.12,Single-ply,SBD,M,
Boys,124.74,DQ,Angel Banderas,San Antonio Memorial,119.57,199.58,120.2,,,Single-ply,SBD,M,
Boys,124.74,DQ,Manuel Belmarez,San Antonio Memorial,123.88,188.24,,,,Single-ply,SBD,M,
Boys,124.74,DQ,Angel Guevarra,Cotulla,124.42,,,,,Single-ply,SBD,M,
Boys,124.74+,1,Jesus Borroel,San Antonio Memorial,144.29,254.01,136.08,240.4,630.49,Single-ply,SBD,M,
Boys,124.74+,2,Jose Vazquez,San Antonio Memorial,135.62,240.4,138.35,204.12,582.87,Single-ply,SBD,M,
Boys,124.74+,3,Gayge Maldonada,Somerset,126.82,229.06,167.83,183.7,580.6,Single-ply,SBD,M,
Boys,124.74+,4,Kirk Revis,San Antonio Holy Cross,126.19,213.19,149.69,183.7,546.58,Single-ply,SBD,M,
Boys,124.74+,5,Roy Cantu,San Antonio Memorial,137.35,208.65,124.74,206.38,539.77,Single-ply,SBD,M,
Boys,124.74+,6,Mark Flores,Somerset,125.42,231.33,158.76,142.88,532.97,Single-ply,SBD,M,
Boys,124.74+,7,Bode Walters,Marion,136.62,206.38,142.88,179.17,528.44,Single-ply,SBD,M,
Boys,124.74+,8,Darrin Lafferty,Devine,135.31,176.9,124.74,195.04,496.68,Single-ply,SBD,M,
Boys,124.74+,9,Robert Lopez,San Antonio Memorial,145.88,181.44,117.93,183.7,483.08,Single-ply,SBD,M,
