Division,WeightClassKg,Place,Name,Team,BodyweightKg,Best3SquatKg,Best3BenchKg,Best3DeadliftKg,TotalKg,Equipment,Event,Sex,BirthDate
Boys,51.71,1,Kirstin Danna,Kirbyville,51.66,136.08,83.91,138.35,358.34,Single-ply,SBD,M,
Boys,51.71,2,Hayden Wilkinson,Buna,50.94,138.35,81.65,136.08,356.07,Single-ply,SBD,M,
Boys,51.71,3,Alex Le,Palacios,47.85,131.54,79.38,131.54,342.46,Single-ply,SBD,M,
Boys,51.71,4,Noah Jones #2,Edna,50.94,124.74,61.23,145.15,331.12,Single-ply,SBD,M,
Boys,51.71,5,Beau Galetti,Ganado,48.94,99.79,52.16,115.67,267.62,Single-ply,SBD,M,
Boys,51.71,6,Jacob Kidwell,Hitchcock,50.53,95.25,49.9,122.47,267.62,Single-ply,SBD,M,
Boys,51.71,7,Kyle Sanchez,Boling,46.99,104.33,49.9,108.86,263.08,Single-ply,SBD,M,
Boys,51.71,8,Jack King,Coldspring-Oakhurst,48.63,90.72,45.36,104.33,240.4,Single-ply,SBD,M,
Boys,51.71,9,Hunter Kopecky,East Bernard,49.94,97.52,49.9,90.72,238.14,Single-ply,SBD,M,
Boys,51.71,10,James Arrington,Boling,44.72,65.77,52.16,86.18,204.12,Single-ply,SBD,M,
Boys,51.71,11,Kaden Butler,Colmesneil,46.77,74.84,36.29,86.18,197.31,Single-ply,SBD,M,
Boys,51.71,12,Ricky Davis,Anahuac,48.49,58.97,47.63,65.77,172.37,Single-ply,SBD,M,
Boys,55.79,1,Rudy Becerra,Boling,55.52,179.17,95.25,156.49,430.91,Single-ply,SBD,M,
Boys,55.79,2,Damien Garza,Van Vleck,55.11,167.83,92.99,154.22,415.04,Single-ply,SBD,M,
Boys,55.79,3,Ricky Regalado,Warren,55.79,129.27,113.4,154.22,396.89,Single-ply,SBD,M,
Boys,55.79,4,Trey Steffens,East Bernard,54.93,142.88,81.65,122.47,347,Single-ply,SBD,M,
Boys,55.79,5,William Harding,Buna,55.25,122.47,86.18,129.27,337.93,Single-ply,SBD,M,
Boys,55.79,6,Geovanni Villeda,Edna,55.52,133.81,63.5,129.27,326.59,Single-ply,SBD,M,
Boys,55.79,7,Blaine Fann,Woodville,55.79,102.06,68.04,120.2,290.3,Single-ply,SBD,M,
Boys,55.79,8,Aldan Brinkley,Anahuac,53.8,88.45,56.7,142.88,288.03,Single-ply,SBD,M,
Boys,55.79,9,Karson Van Pelt,Vanderbilt Industrial,54.2,97.52,58.97,124.74,281.23,Single-ply,SBD,M,
Boys,55.79,10,Brandon Sarver,Buna,55.38,90.72,63.5,122.47,276.69,Single-ply,SBD,M,
Boys,55.79,11,Bruce Burtschell,Ganado,55.07,81.65,52.16,111.13,244.94,Single-ply,SBD,M,
Boys,55.79,12,Mason Teel,Colmesneil,55.52,79.38,43.09,92.99,215.46,Single-ply,SBD,M,
Boys,59.87,1,Kevin Manning,Boling,59.6,244.94,131.54,208.65,585.13,Single-ply,SBD,M,
Boys,59.87,2,Miguel Sanchez,Palacios,59.42,201.85,111.13,190.51,503.49,Single-ply,SBD,M,
Boys,59.87,3,Tyler Greer,Woodville,58.51,188.24,97.52,179.17,464.93,Single-ply,SBD,M,
Boys,59.87,4,Mykal Vera,Corrigan-Camden,57.97,183.7,95.25,172.37,451.32,Single-ply,SBD,M,
Boys,59.87,5,Dylan Wells,Orangefield,58.6,161.03,102.06,163.29,426.38,Single-ply,SBD,M,
Boys,59.87,6,Marco Sanchez,Hitchcock,59.87,154.22,88.45,161.03,403.7,Single-ply,SBD,M,
Boys,59.87,7,Kameron Matthews,East Bernard,59.38,127.01,97.52,172.37,396.89,Single-ply,SBD,M,
Boys,59.87,8,Tyrin Brito,Ganado,59.69,158.76,68.04,154.22,381.02,Single-ply,SBD,M,
Boys,59.87,9,Alerique Medrano,Boling,58.33,133.81,74.84,138.35,347,Single-ply,SBD,M,
Boys,59.87,10,John Lopez,Edna,58.56,131.54,68.04,145.15,344.73,Single-ply,SBD,M,
Boys,59.87,11,Ean Chreene,Vanderbilt Industrial,58.79,127.01,74.84,142.88,344.73,Single-ply,SBD,M,
Boys,59.87,12,Stade Yount,Louise,59.83,122.47,88.45,129.27,340.19,Single-ply,SBD,M,
Boys,59.87,NS,Gavin Buxton,Deweyville,,,,,,Single-ply,SBD,M,
Boys,67.13,1,Moises Amaro,Palacios,66.5,265.35,165.56,224.53,655.44,Single-ply,SBD,M,
Boys,67.13,2,Jack Broughton,Buna,65.86,204.12,124.74,183.7,512.56,Single-ply,SBD,M,
Boys,67.13,3,Ashton Norwood,Hitchcock,65.45,176.9,104.33,208.65,489.88,Single-ply,SBD,M,
Boys,67.13,4,Eddy Brown,Coldspring-Oakhurst,66.86,183.7,124.74,172.37,480.81,Single-ply,SBD,M,
Boys,67.13,5,Justan Stanley,Kountze,62.91,167.83,95.25,183.7,446.79,Single-ply,SBD,M,
Boys,67.13,6,Austin Taylor #5,Orangefield,65.91,161.03,97.52,185.97,444.52,Single-ply,SBD,M,
Boys,67.13,7,Chris West,Winnie East Chambers,65.14,151.95,104.33,183.7,439.98,Single-ply,SBD,M,
Boys,67.13,8,Garrison Hughes,Orangefield,63.23,174.63,83.91,174.63,433.18,Single-ply,SBD,M,
Boys,67.13,9,Julian Arteaga,Deweyville,66.22,161.03,102.06,161.03,424.11,Single-ply,SBD,M,
Boys,67.13,10,Andrew Dirba,East Bernard,61.73,167.83,97.52,149.69,415.04,Single-ply,SBD,M,
Boys,67.13,DQ,Gaven Cameron,Danbury,66.04,,,,,Single-ply,SBD,M,
Boys,67.13,DQ,Carlos Olmedo #1,Boling,66.41,,,,,Single-ply,SBD,M,
Boys,74.84,1,Tanner Hunt,Buna,73.89,204.12,129.27,210.92,544.31,Single-ply,SBD,M,
Boys,74.84,2,Kobi Poage,Corrigan-Camden,73.48,206.38,129.27,199.58,535.24,Single-ply,SBD,M,
Boys,74.84,3,Niklas Schatz,East Bernard,70.03,215.46,111.13,201.85,528.44,Single-ply,SBD,M,
Boys,74.84,4,Stephen Morales,Hitchcock,73.8,213.19,104.33,199.58,517.1,Single-ply,SBD,M,
Boys,74.84,5,Michael Jackson,Buna,74.48,176.9,108.86,208.65,494.42,Single-ply,SBD,M,
Boys,74.84,6,Tai Pham,Anahuac,72.8,183.7,102.06,195.04,480.81,Single-ply,SBD,M,
Boys,74.84,7,Clayton Westbrook,Orangefield,69.81,167.83,120.2,181.44,469.47,Single-ply,SBD,M,
Boys,74.84,8,Jonah Smith,Winnie East Chambers,72.17,183.7,102.06,183.7,469.47,Single-ply,SBD,M,
Boys,74.84,9,Tony Solano,Warren,67.22,165.56,95.25,183.7,444.52,Single-ply,SBD,M,
Boys,74.84,10,Ely Whisenant,Kountze,71.35,158.76,106.59,149.69,415.04,Single-ply,SBD,M,
Boys,74.84,DQ,Jeraan Arguellez,Vanderbilt Industrial,68.45,,,,,Single-ply,SBD,M,
Boys,74.84,DQ,Tyler Milstead,Buna,72.39,,,,,Single-ply,SBD,M,
Boys,82.1,1,Micah Bumgarner,Hitchcock,79.51,233.6,133.81,217.72,585.13,Single-ply,SBD,M,
Boys,82.1,2,Grant Metts,Orangefield,80.1,233.6,113.4,222.26,569.26,Single-ply,SBD,M,
Boys,82.1,3,Cody LaBry,Orangefield,81.78,204.12,129.27,185.97,519.36,Single-ply,SBD,M,
Boys,82.1,4,Blake Jedlicka,East Bernard,78.65,183.7,108.86,208.65,501.22,Single-ply,SBD,M,
Boys,82.1,5,Marco Martínez,Corrigan-Camden,78.7,192.78,113.4,183.7,489.88,Single-ply,SBD,M,
Boys,82.1,6,Kevon Paire,Woodville,82.05,158.76,122.47,208.65,489.88,Single-ply,SBD,M,
Boys,82.1,7,Nahn Pham,Anahuac,81.1,185.97,111.13,179.17,476.27,Single-ply,SBD,M,
Boys,82.1,8,Robert Perez,Kountze,79.56,181.44,102.06,185.97,469.47,Single-ply,SBD,M,
Boys,82.1,9,Carlo Lewis,Hitchcock,80.78,192.78,86.18,174.63,453.59,Single-ply,SBD,M,
Boys,82.1,10,Matt Fleming,Hitchcock,78.47,176.9,102.06,170.1,449.06,Single-ply,SBD,M,
Boys,82.1,11,Devin St Cyr,Kirbyville,81.6,167.83,108.86,172.37,449.06,Single-ply,SBD,M,
Boys,82.1,12,Dauson Venable,Kountze,80.47,142.88,83.91,174.63,401.43,Single-ply,SBD,M,
Boys,82.1,DQ,Dalton Bohannon,Edna,80.69,,,,,Single-ply,SBD,M,
Boys,82.1,NS,Trey Hatton,Woodville,,,,,,Single-ply,SBD,M,
Boys,82.1,NS,Jesse Arrington,Boling,,,,,,Single-ply,SBD,M,
Boys,82.1,NS,Caleb Mitchell,Hitchcock,,,,,,Single-ply,SBD,M,
Boys,89.81,1,Kelvon Norman,Hitchcock,89.77,240.4,151.95,213.19,605.55,Single-ply,SBD,M,
Boys,89.81,2,J Galvan,East Bernard,83.05,235.87,142.88,222.26,601.01,Single-ply,SBD,M,
Boys,89.81,3,Mark Davis,Buna,85.64,247.21,142.88,210.92,601.01,Single-ply,SBD,M,
Boys,89.81,4,Cutler Hubbard,Orangefield,88.45,235.87,127.01,217.72,580.6,Single-ply,SBD,M,
Boys,89.81,5,Logan Hill,Anahuac,84.28,213.19,106.59,254.01,573.79,Single-ply,SBD,M,
Boys,89.81,6,De'Anthony Gatson,Newton,87.77,201.85,111.13,249.48,562.45,Single-ply,SBD,M,
Boys,89.81,7,Xavier Perez #1,Palacios,86.27,215.46,124.74,204.12,544.31,Single-ply,SBD,M,
Boys,89.81,8,Fernando Cortez,Edna,85.28,208.65,120.2,208.65,537.51,Single-ply,SBD,M,
Boys,89.81,9,David Zavala,Palacios,88.86,217.72,115.67,188.24,521.63,Single-ply,SBD,M,
Boys,89.81,10,William Pelt,Warren,86.27,215.46,108.86,185.97,510.29,Single-ply,SBD,M,
Boys,89.81,NS,Zach Pierce,El Maton Tidehaven,,,,,,Single-ply,SBD,M,
Boys,89.81,NS,Isaiah Hart,Winnie East Chambers,,,,,,Single-ply,SBD,M,
Boys,89.81,DQ,Derek Luna,Louise,83.05,199.58,,,,Single-ply,SBD,M,
Boys,99.79,1,Chance Harding,Buna,93.71,254.01,156.49,226.8,637.3,Single-ply,SBD,M,
Boys,99.79,2,Kade Elliott,Corrigan-Camden,92.08,240.4,136.08,251.74,628.23,Single-ply,SBD,M,
Boys,99.79,3,Hunter Ashworth,Orangefield,98.11,258.55,133.81,235.87,628.23,Single-ply,SBD,M,
Boys,99.79,4,James White,Danbury,97.3,215.46,158.76,224.53,598.74,Single-ply,SBD,M,
Boys,99.79,5,Dylan Whitman,Orangefield,96.21,235.87,127.01,217.72,580.6,Single-ply,SBD,M,
Boys,99.79,6,Connor Ellison,Buna,99.56,213.19,131.54,195.04,539.77,Single-ply,SBD,M,
Boys,99.79,7,Josh Figueroa,Van Vleck,93.21,219.99,124.74,183.7,528.44,Single-ply,SBD,M,
Boys,99.79,8,Jack Gore,Woodville,99.74,208.65,102.06,181.44,492.15,Single-ply,SBD,M,
Boys,99.79,9,Peyton Gonzales,Edna,99.65,190.51,108.86,190.51,489.88,Single-ply,SBD,M,
Boys,99.79,10,Carter Newell,Anahuac,94.53,163.29,120.2,195.04,478.54,Single-ply,SBD,M,
Boys,99.79,DQ,Caleb Monroe,Coldspring-Oakhurst,99.56,204.12,149.69,,,Single-ply,SBD,M,
Boys,99.79,NS,Eric Garza,Edna,,,,,,Single-ply,SBD,M,
Boys,109.77,1,Santos Garcia,Orangefield,108.27,267.62,165.56,240.4,673.58,Single-ply,SBD,M,
Boys,109.77,2,Tristan Bermea,Vanderbilt Industrial,108.64,274.42,163.29,231.33,669.05,Single-ply,SBD,M,
Boys,109.77,3,Jermiah Juarez,Warren,106.32,247.21,149.69,226.8,623.69,Single-ply,SBD,M,
Boys,109.77,4,Trent Reyes,Boling,108,256.28,129.27,213.19,598.74,Single-ply,SBD,M,
Boys,109.77,5,Daniel Gaona,Louise,105.64,226.8,136.08,208.65,571.53,Single-ply,SBD,M,
Boys,109.77,6,Tristin Stewart,Winnie East Chambers,106.5,242.67,115.67,213.19,571.53,Single-ply,SBD,M,
Boys,109.77,7,Kyler Metts,Orangefield,105.78,240.4,124.74,204.12,569.26,Single-ply,SBD,M,
Boys,109.77,8,Ethan Meads,Orangefield,102.83,226.8,131.54,204.12,562.45,Single-ply,SBD,M,
Boys,109.77,9,Jerry Richards,Boling,108.36,215.46,120.2,204.12,539.77,Single-ply,SBD,M,
Boys,109.77,10,Trenton Dickey,Hardin,109.77,215.46,124.74,190.51,530.7,Single-ply,SBD,M,
Boys,109.77,11,Cole Casper,Corrigan-Camden,102.6,206.38,113.4,208.65,528.44,Single-ply,SBD,M,
Boys,109.77,DQ,Mark Glover,East Bernard,102.74,240.4,,,,Single-ply,SBD,M,
Boys,124.74,1,Kyler Loftin,Warren,113.81,294.84,188.24,249.48,732.55,Single-ply,SBD,M,
Boys,124.74,2,Hunter Norwood,Orangefield,112.35,283.5,156.49,238.14,678.12,Single-ply,SBD,M,
Boys,124.74,3,Jerry Johnson,El Maton Tidehaven,121.7,272.16,149.69,204.12,625.96,Single-ply,SBD,M,
Boys,124.74,4,Raul Tavares,East Bernard,120.52,249.48,147.42,192.78,589.67,Single-ply,SBD,M,
Boys,124.74,5,Destin Jackson,Newton,115.62,238.14,129.27,219.99,587.4,Single-ply,SBD,M,
Boys,124.74,6,Chris Vasquez,Louise,117.3,233.6,102.06,219.99,555.65,Single-ply,SBD,M,
Boys,124.74,7,Wyatt Gobert,Van Vleck,122.79,215.46,140.61,199.58,555.65,Single-ply,SBD,M,
Boys,124.74,8,Casen Ivy,East Bernard,110.22,213.19,127.01,213.19,553.38,Single-ply,SBD,M,
Boys,124.74,9,Andre Brady,Edna,115.89,215.46,106.59,206.38,528.44,Single-ply,SBD,M,
Boys,124.74,DQ,Vincent Rankin,Coldspring-Oakhurst,114.21,206.38,,,,Single-ply,SBD,M,
Boys,124.74,DQ,Dylan Dalahite,Kountze,123.65,240.4,124.74,,,Single-ply,SBD,M,
Boys,124.74,DQ,Coby Coulter,Orangefield,120.2,,,,,Single-ply,SBD,M,
Boys,124.74+,1,Andrew Platt #2,Buna,143.38,310.71,185.97,235.87,732.55,Single-ply,SBD,M,
Boys,124.74+,2,Paul Thonsgaard,Hardin,130.59,281.23,172.37,249.48,703.07,Single-ply,SBD,M,
Boys,124.74+,3,Hayden Richardson,Coldspring-Oakhurst,144.83,283.5,154.22,249.48,687.19,Single-ply,SBD,M,
Boys,124.74+,4,JR Schauer,East Bernard,134.67,256.28,179.17,213.19,648.64,Single-ply,SBD,M,
Boys,124.74+,5,Colin Broussard,Winnie East Chambers,144.02,249.48,124.74,224.53,598.74,Single-ply,SBD,M,
Boys,124.74+,6,D'Quincy Wise,Woodville,126.37,249.48,129.27,215.46,594.21,Single-ply,SBD,M,
Boys,124.74+,7,Patrick Perkins,Van Vleck,170.96,226.8,142.88,224.53,594.21,Single-ply,SBD,M,
Boys,124.74+,8,Arnoldo Rodriguez,Anahuac,140.7,242.67,120.2,226.8,589.67,Single-ply,SBD,M,
Boys,124.74+,9,Keegan Carrillo,El Maton Tidehaven,134.76,233.6,154.22,195.04,582.87,Single-ply,SBD,M,
Boys,124.74+,10,Mikal Bryan,Hitchcock,144.2,226.8,145.15,204.12,576.06,Single-ply,SBD,M,
Boys,124.74+,DQ,Gabe Statum,Orangefield,142.2,233.6,,,,Single-ply,SBD,M,
Boys,124.74+,DQ,Richard Bronson,Buna,144.47,206.38,154.22,,,Single-ply,SBD,M,
