Name,Place,Division,Sex,Equipment,WeightClassKg,BodyweightKg,Age,Best3SquatKg,Best3BenchKg,Best3DeadliftKg,TotalKg,Event
Tara Noble,1,Open,F,Wraps,60,59.5,,75,42.5,102.5,220,SBD
Mary Case,1,Open,F,Wraps,75,71.6,58,110,77.5,115,302.5,SBD
Mary Case,1,Masters 55-59,F,Wraps,75,71.6,58,110,77.5,115,302.5,SBD
Juanita Lee,1,Open,F,Wraps,90+,115.19,34,112.5,70,137.5,320,SBD
Rex Jones,DQ,Open,M,Wraps,60,59.96,30,-157.5,115,175,,SBD
Gerald Lebrilla,1,Juniors 18-19,M,Wraps,67.5,66,19,150,110,197.5,457.5,SBD
Jesse Aguirre,1,Juniors 20-23,M,Wraps,75,70,20,150,105,227.5,482.5,SBD
Joe Martin #2,1,Masters 50-54,M,Wraps,90,88.99,52,182.5,145,215,542.5,SBD
Justin Harris #5,1,Open,M,Wraps,100,99,41,185,127.5,220,532.5,SBD
Justin Harris #5,1,Masters 40-44,M,Wraps,100,99,41,185,127.5,220,532.5,SBD
Cameron Willis,1,Juniors 16-17,M,Wraps,110,101.5,17,210,142.5,215,567.5,SBD
Salvador Betancourt,1,Juniors 20-23,M,Wraps,110,105,20,207.5,145,222.5,575,SBD
Frederick Martinez,1,Open,M,Wraps,125,120,47,227.5,175,295,697.5,SBD
Frederick Martinez,1,Masters 45-49,M,Wraps,125,120,47,227.5,175,295,697.5,SBD
Tony Rodenburg,1,Masters 55-59,M,Wraps,125,123.5,56,107.5,112.5,200,420,SBD
Mike Guidry,1,Open,M,Wraps,140,139.98,,245,185,230,660,SBD
Evangeline Keresey,1,Masters 70-74,F,Multi-ply,67.5,64.4,72,95,60,137.5,292.5,SBD
Lisa Gaad,DQ,Open,F,Multi-ply,82.5,81.19,29,65,-50,102.5,,SBD
Eddie Buehner,1,Open,M,Multi-ply,90,83,46,205,115,217.5,537.5,SBD
Matthew Olivares,1,Submasters 35-39,M,Multi-ply,90,88.75,37,185,110,182.5,477.5,SBD
Eddie Buehner,1,Masters 45-49,M,Multi-ply,90,83,46,205,115,217.5,537.5,SBD
Lawrence McElhaney,1,Juniors 18-19,M,Multi-ply,100,99,18,172.5,107.5,170,450,SBD
Lawrence McElhaney,1,Open,M,Multi-ply,100,99,18,172.5,107.5,170,450,SBD
Tyson Orwoll,1,Open,M,Multi-ply,110,109,31,260,175,257.5,692.5,SBD
Gregory Santa Cruz,2,Open,M,Multi-ply,110,104,24,220,182.5,260,662.5,SBD
Kregg Rackley,1,Juniors 20-23,M,Multi-ply,125,116.1,20,217.5,165,207.5,590,SBD
Bryant Ayers,1,Open,M,Multi-ply,125,117,39,265,197.5,250,712.5,SBD
Bill McEwen,2,Open,M,Multi-ply,125,116,58,195,132.5,190,517.5,SBD
Bill McEwen,1,Masters 55-59,M,Multi-ply,125,116,58,195,132.5,190,517.5,SBD
Mark Folweiler,DQ,Juniors 20-23,M,Multi-ply,140+,172.5,22,-327.5,,,,SBD
Steven Lee #2,1,Open,M,Multi-ply,140+,149.49,33,275,65,205,545,SBD
Kent Russell,1,Open,M,Raw,100,99.79,38,,187.5,,187.5,B
Matt Bickel,2,Open,M,Raw,100,99.79,,,170,,170,B
Kent Russell,1,Submasters 35-39,M,Raw,100,99.79,38,,187.5,,187.5,B
Tom Kosanouvong,1,Open,M,Raw,110,103.5,33,,205,,205,B
Brian Thompson,2,Open,M,Raw,110,107.7,53,,170,,170,B
James Smith,1,Masters 45-49,M,Raw,110,109.5,46,,200,,200,B
Brian Thompson,1,Masters 50-54,M,Raw,110,107.7,53,,170,,170,B
Gregory Cotterell,2,Masters 50-54,M,Raw,110,109.75,52,,155,,155,B
Tyson Orwoll,1,Open,M,Multi-ply,110,109,31,,175,,175,B
Todd Kezerian,1,Masters 55-59,M,Multi-ply,110,109.5,57,,175,,175,B
Joe Mass #1,DQ,Juniors 20-23,M,Multi-ply,140+,167.5,20,,-305,,,B
