Division,WeightClassKg,Place,Name,Team,BodyweightKg,Best3SquatKg,Best3BenchKg,Best3DeadliftKg,TotalKg,Equipment,Event,Sex
Div 2,51.71,1,Jermaine Mendiola,Somerset,51.53,183.7,79.38,167.83,430.91,Single-ply,SBD,M
Div 2,51.71,2,Angel Bermudez,Poteet,50.35,170.1,102.06,156.49,428.64,Single-ply,SBD,M
Div 2,51.71,3,Justin Dowdy,Wills Point,50.62,158.76,90.72,172.37,421.84,Single-ply,SBD,M
Div 2,51.71,4,Miguel Hernandez,Emory Rains,50.98,176.9,83.91,154.22,415.04,Single-ply,SBD,M
Div 2,51.71,5,Pete Olivarez,Orange Grove,51.07,161.03,90.72,154.22,405.97,Single-ply,SBD,M
Div 2,51.71,6,Oscar Perez,Venus,51.62,172.37,86.18,145.15,403.7,Single-ply,SBD,M
Div 2,51.71,7,Antonio Ponce,Glen Rose,51.62,145.15,72.57,165.56,383.29,Single-ply,SBD,M
Div 2,55.79,8,Julian Ortega,Rio Hondo,51.89,129.27,88.45,163.29,381.02,Single-ply,SBD,M
Div 2,51.71,9,Joseph Kelley,Cleveland,51.71,147.42,83.91,147.42,378.75,Single-ply,SBD,M
Div 2,51.71,10,Juan Duran #2,Lubbock Cooper,49.35,136.08,81.65,154.22,371.95,Single-ply,SBD,M
Div 2,51.71,11,Ricardo Villafana,Splendora,50.35,131.54,86.18,145.15,362.87,Single-ply,SBD,M
Div 2,51.71,12,Dalton Adkins,Iowa Park,50.62,140.61,88.45,133.81,362.87,Single-ply,SBD,M
Div 2,51.71,13,Justin Lindsey,Kennedale,51.07,149.69,70.31,136.08,356.07,Single-ply,SBD,M
Div 2,51.71,14,Andrew Paredez,Big Spring,50.62,113.4,70.31,149.69,333.39,Single-ply,SBD,M
Div 2,55.79,1,Darius Rivera,Princeton,55.7,181.44,104.33,199.58,485.34,Single-ply,SBD,M
Div 2,55.79,2,Ralph Zapata,Rio Hondo,55.16,181.44,104.33,181.44,467.2,Single-ply,SBD,M
Div 2,55.79,3,Jose Rodriguez #2,Athens,54.98,172.37,111.13,172.37,455.86,Single-ply,SBD,M
Div 2,55.79,4,Tyler Nairn,Big Spring,55.25,188.24,104.33,161.03,453.59,Single-ply,SBD,M
Div 2,55.79,5,Derrick Williams,Kennedale,55.61,172.37,97.52,174.63,444.52,Single-ply,SBD,M
Div 2,55.79,6,Miguel Contreras,Robinson,54.43,188.24,86.18,167.83,442.25,Single-ply,SBD,M
Div 2,55.79,7,Lorenzo Sanchez,Taylor,55.43,156.49,102.06,174.63,433.18,Single-ply,SBD,M
Div 2,55.79,8,Jm Elizondo,Pearsall,55.61,179.17,83.91,167.83,430.91,Single-ply,SBD,M
Div 2,55.79,9,Azahel Herrera,Glen Rose,55.43,161.03,106.59,158.76,426.38,Single-ply,SBD,M
Div 2,55.79,10,Jeremy Fejeran,Coldspring-Oakhurst,55.61,136.08,83.91,161.03,381.02,Single-ply,SBD,M
Div 2,55.79,11,Salvador Antillon,Seminole,55.79,140.61,79.38,154.22,374.21,Single-ply,SBD,M
Div 2,55.79,12,Jilani Austin,Needville,55.79,140.61,61.23,140.61,342.46,Single-ply,SBD,M
Div 2,55.79,DQ,Leo Rosales,Rusk,54.79,149.69,86.18,,,Single-ply,SBD,M
Div 2,59.87,1,Taylor Kibodeaux,Buna,59.6,238.14,117.93,195.04,551.11,Single-ply,SBD,M
Div 2,59.87,2,Ricky Guerra,Poteet,58.33,190.51,122.47,210.92,523.9,Single-ply,SBD,M
Div 2,67.13,3,Shaifq Asmaty,Kennedale,59.96,219.99,104.33,199.58,523.9,Single-ply,SBD,M
Div 2,59.87,4,Rudy Martinez,Carrizo Springs,59.15,199.58,102.06,213.19,514.83,Single-ply,SBD,M
Div 2,59.87,5,Reid Clanton,Midland Greenwood,59.69,181.44,115.67,188.24,485.34,Single-ply,SBD,M
Div 2,59.87,6,Jorge Perez,Venus,58.33,208.65,77.11,179.17,464.93,Single-ply,SBD,M
Div 2,59.87,7,Miguel Espino,Perryton,59.51,174.63,104.33,176.9,455.86,Single-ply,SBD,M
Div 2,67.13,8,Tyler Watson,Crandall,60.06,158.76,106.59,183.7,449.06,Single-ply,SBD,M
Div 2,59.87,9,Lucas Sosebee,Iowa Park,58.88,170.1,117.93,158.76,446.79,Single-ply,SBD,M
Div 2,59.87,10,Braden Tschirhart,College Station,59.15,174.63,88.45,174.63,437.72,Single-ply,SBD,M
Div 2,59.87,DQ,Tyler Katz,Shepherd,58.06,165.56,,,,Single-ply,SBD,M
Div 2,59.87,DQ,Matthew Solomon,Texarkana Liberty-Eylau,59.24,188.24,106.59,,,Single-ply,SBD,M
Div 2,67.13,1,Deroddrick Hadnot,Jasper,66.22,249.48,142.88,233.6,625.96,Single-ply,SBD,M
Div 2,67.13,2,Andrew Alvidrez,Seminole,66.86,242.67,133.81,226.8,603.28,Single-ply,SBD,M
Div 2,67.13,3,Alan Alfaro,Rio Hondo,65.95,201.85,133.81,247.21,582.87,Single-ply,SBD,M
Div 2,67.13,4,Julio Rodriguez,Raymondville,66.32,226.8,129.27,226.8,582.87,Single-ply,SBD,M
Div 2,67.13,5,Manuel Rodriguez #4,Robinson,64.41,219.99,106.59,238.14,564.72,Single-ply,SBD,M
Div 2,67.13,6,Dylan Serna,Krum,65.41,217.72,127.01,219.99,564.72,Single-ply,SBD,M
Div 2,67.13,7,Felix Gutierrez,Crystal City,64.41,199.58,140.61,208.65,548.85,Single-ply,SBD,M
Div 2,74.84,8,Noah Steptoe,Navasota,67.31,222.26,113.4,208.65,544.31,Single-ply,SBD,M
Div 2,67.13,9,Andrew Marrero,Lorena,66.59,226.8,102.06,213.19,542.04,Single-ply,SBD,M
Div 2,67.13,10,Kutter Schmidt,Devine,66.86,222.26,129.27,185.97,537.51,Single-ply,SBD,M
Div 2,74.84,11,Will Carter,Sanger,67.31,192.78,127.01,204.12,523.9,Single-ply,SBD,M
Div 2,67.13,12,Christian Allison,Carthage,66.5,199.58,115.67,192.78,508.02,Single-ply,SBD,M
Div 2,67.13,13,Jordan Davis #4,Snyder,66.41,185.97,92.99,213.19,492.15,Single-ply,SBD,M
Div 2,67.13,14,Levi Roberts,Atlanta,66.41,185.97,104.33,185.97,476.27,Single-ply,SBD,M
Div 2,67.13,DQ,Gerald Johnson,La Marque,65.32,181.44,,,,Single-ply,SBD,M
Div 2,67.13,DQ,James Zaragoza,Raymondville,65.86,,,,,Single-ply,SBD,M
Div 2,74.84,1,Alex Scallion,Castleberry,74.39,244.94,161.03,244.94,650.91,Single-ply,SBD,M
Div 2,74.84,2,Garrett Stanley,Center,74.48,249.48,140.61,251.74,641.83,Single-ply,SBD,M
Div 2,74.84,3,Brad Meadows,Texarkana Pleasant Grove,73.66,235.87,163.29,235.87,635.03,Single-ply,SBD,M
Div 2,74.84,4,Michael Mitchell,Wichita Falls Hirschi,73.12,233.6,140.61,242.67,616.89,Single-ply,SBD,M
Div 2,74.84,5,Alvin Battle,Atlanta,74.21,244.94,136.08,235.87,616.89,Single-ply,SBD,M
Div 2,74.84,6,Franterric Powell,Navasota,72.57,235.87,129.27,231.33,596.47,Single-ply,SBD,M
Div 2,74.84,7,Elliot Hanna,Levelland,71.67,217.72,131.54,226.8,576.06,Single-ply,SBD,M
Div 2,74.84,8,Aj Box,Shepherd,73.21,226.8,154.22,195.04,576.06,Single-ply,SBD,M
Div 2,74.84,9,Luis Guzman,Cleveland,74.48,222.26,124.74,226.8,573.79,Single-ply,SBD,M
Div 2,74.84,10,Daniel Hernandez,Taylor,73.57,222.26,117.93,219.99,560.19,Single-ply,SBD,M
Div 2,74.84,11,Nathan Medrano,Lytle,72.03,235.87,127.01,188.24,551.11,Single-ply,SBD,M
Div 2,74.84,12,Jarric Weber,Borger,70.94,181.44,120.2,210.92,512.56,Single-ply,SBD,M
Div 2,74.84,DQ,Jesse Leyva,Raymondville,73.84,,,,,Single-ply,SBD,M
Div 2,82.1,1,Chase McGhee,Gatesville,78.93,281.23,158.76,258.55,698.53,Single-ply,SBD,M
Div 2,82.1,2,Jeremy Turner,Rusk,79.56,283.5,140.61,256.28,680.39,Single-ply,SBD,M
Div 2,82.1,3,Leo Brooks,Kennedale,81.37,244.94,179.17,231.33,655.44,Single-ply,SBD,M
Div 2,82.1,4,Aaron Johnson #13,Bullard,80.83,249.48,142.88,256.28,648.64,Single-ply,SBD,M
Div 2,82.1,5,Adan Cantu,Rio Grande City Grulla,80.65,265.35,142.88,217.72,625.96,Single-ply,SBD,M
Div 2,82.1,6,Everado Araujo,Taylor,80.38,256.28,129.27,229.06,614.62,Single-ply,SBD,M
Div 2,82.1,7,Jamie Tellez,Gonzales,81.74,240.4,127.01,222.26,589.67,Single-ply,SBD,M
Div 2,82.1,8,Ricky Mendez,Lubbock Cooper,78.2,208.65,147.42,219.99,576.06,Single-ply,SBD,M
Div 2,82.1,9,Andrew Harrison,Coldspring-Oakhurst,81.47,226.8,102.06,231.33,560.19,Single-ply,SBD,M
Div 2,82.1,10,Steven Blankenship,Graham,78.02,195.04,145.15,208.65,548.85,Single-ply,SBD,M
Div 2,82.1,11,Jose Cornejo,Andrews,78.02,192.78,113.4,224.53,530.7,Single-ply,SBD,M
Div 2,82.1,DQ,Roderick Harper,Silsbee,77.02,204.12,127.01,,,Single-ply,SBD,M
Div 2,89.81,1,Desmond Payton,College Station,88.27,317.51,124.74,288.03,730.28,Single-ply,SBD,M
Div 2,89.81,2,Ramon Sauceda,La Feria,88.9,278.96,190.51,260.82,730.28,Single-ply,SBD,M
Div 2,89.81,3,Chris Rogers,Burkburnett,89.81,274.42,179.17,244.94,698.53,Single-ply,SBD,M
Div 2,89.81,4,Derek Shelby,Sanger,87,251.74,174.63,254.01,680.39,Single-ply,SBD,M
Div 2,89.81,5,Kiounis Williams,Center,88.81,254.01,147.42,267.62,669.05,Single-ply,SBD,M
Div 2,89.81,6,Leo Meyers,Atlanta,89.45,258.55,163.29,231.33,653.17,Single-ply,SBD,M
Div 2,89.81,7,Aaron Chitwood,Brownsboro,88,272.16,136.08,226.8,635.03,Single-ply,SBD,M
Div 2,99.79,8,Domingo Gonzalez,Rockport-Fulton,90.04,229.06,127.01,274.42,630.49,Single-ply,SBD,M
Div 2,99.79,9,Joseph Mendoza,Giddings,89.99,272.16,106.59,249.48,628.23,Single-ply,SBD,M
Div 2,89.81,10,Gannon Brown,Emory Rains,83.01,215.46,158.76,249.48,623.69,Single-ply,SBD,M
Div 2,89.81,11,Gage Dryden,Cleveland Tarkington,87.91,215.46,158.76,240.4,614.62,Single-ply,SBD,M
Div 2,89.81,12,Justin Kennedy,Buna,85.73,204.12,145.15,219.99,569.26,Single-ply,SBD,M
Div 2,89.81,13,Miguel Rangel,Borger,86.73,215.46,133.81,210.92,560.19,Single-ply,SBD,M
Div 2,89.81,DQ,Sam Heath,Aubrey,86.73,,,,,Single-ply,SBD,M
Div 2,89.81,DQ,Orlando Haymon,Vernon,89.09,,,,,Single-ply,SBD,M
Div 2,99.79,1,Hunter Phelps,Bullard,98.88,294.84,151.95,269.89,716.68,Single-ply,SBD,M
Div 2,99.79,2,Ty Tamplin,Buna,95.8,290.3,174.63,249.48,714.41,Single-ply,SBD,M
Div 2,99.79,3,Alex Joplin,Burkburnett,91.08,276.69,170.1,233.6,680.39,Single-ply,SBD,M
Div 2,99.79,4,DeVincent Hoyt,Center,98.43,258.55,163.29,242.67,664.51,Single-ply,SBD,M
Div 2,99.79,5,Heath Nicholson,Glen Rose,97.52,254.01,136.08,272.16,662.24,Single-ply,SBD,M
Div 2,99.79,6,Leo Perez,Devine,98.16,258.55,154.22,217.72,630.49,Single-ply,SBD,M
Div 2,99.79,7,Justin Lomas,Crystal City,99.79,249.48,142.88,235.87,628.23,Single-ply,SBD,M
Div 2,99.79,8,Azel Alvidrez,Andrews,94.44,226.8,149.69,242.67,619.15,Single-ply,SBD,M
Div 2,109.77,9,Jovito Mendez,Needville,99.97,244.94,147.42,226.8,619.15,Single-ply,SBD,M
Div 2,99.79,10,Paul Ochoa,Levelland,96.25,226.8,149.69,188.24,564.72,Single-ply,SBD,M
Div 2,99.79,DQ,Garrett Lansford,Anna,94.08,,,,,Single-ply,SBD,M
Div 2,109.77,1,Michael Rodriguez #4,Kingsville King,109.5,390.09,258.55,294.84,943.47,Single-ply,SBD,M
Div 2,109.77,2,Dillen Kilpatrick,Fairfield,108.59,317.51,190.51,242.67,750.7,Single-ply,SBD,M
Div 2,109.77,3,Chris Robinson #5,Waco Connally,106.32,283.5,176.9,260.82,721.21,Single-ply,SBD,M
Div 2,109.77,4,Matt Gerik,West,107.86,285.76,170.1,251.74,707.6,Single-ply,SBD,M
Div 2,109.77,5,DeAnthony Cuney,Jasper,107.95,254.01,183.7,254.01,691.73,Single-ply,SBD,M
Div 2,109.77,6,Gabriel García,Yoakum,106.96,290.3,158.76,240.4,689.46,Single-ply,SBD,M
Div 2,109.77,7,Gonzalo Arreguin,Tyler Chapel Hill,106.14,249.48,176.9,249.48,675.85,Single-ply,SBD,M
Div 2,109.77,8,Conner Barnes,Sanger,100.24,249.48,195.04,215.46,659.98,Single-ply,SBD,M
Div 2,109.77,9,Derek Baynes,Graham,104.24,260.82,158.76,222.26,641.83,Single-ply,SBD,M
Div 2,109.77,10,Oscar Gutierrez,Monahans,109.77,263.08,138.35,222.26,623.69,Single-ply,SBD,M
Div 2,109.77,11,Tyler Brewer,Dalhart,105.51,238.14,129.27,240.4,607.81,Single-ply,SBD,M
Div 2,109.77,DQ,Jerrod Watkins,Orangefield,105.96,,,,,Single-ply,SBD,M
Div 2,124.74,1,Seth White,Alvarado,119.93,322.05,219.99,249.48,791.52,Single-ply,SBD,M
Div 2,124.74,2,Bryce Dowda,Bandera,122.11,278.96,176.9,258.55,714.41,Single-ply,SBD,M
Div 2,124.74,3,Gustavo Bonilla,Robinson,119.02,267.62,170.1,272.16,709.87,Single-ply,SBD,M
Div 2,124.74,4,Spencer Holsey,Borger,119.57,267.62,151.95,276.69,696.26,Single-ply,SBD,M
Div 2,124.74,5,Brent Reed,Kennedale,122.2,272.16,145.15,272.16,689.46,Single-ply,SBD,M
Div 2,124.74,6,Husky Melendez,Graham,122.2,267.62,181.44,238.14,687.19,Single-ply,SBD,M
Div 2,124.74,7,Drew Davis,Texarkana Pleasant Grove,121.93,258.55,183.7,240.4,682.66,Single-ply,SBD,M
Div 2,124.74,8,Nick Rhame,Buna,110.59,272.16,183.7,217.72,673.58,Single-ply,SBD,M
Div 2,124.74,9,Boston Alvarado,Fort Stockton,116.94,276.69,147.42,244.94,669.05,Single-ply,SBD,M
Div 2,124.74,10,Zach Verhalen,Center,111.31,260.82,165.56,229.06,655.44,Single-ply,SBD,M
Div 2,124.74,11,Ashton Limbrick,Jasper,121.93,254.01,145.15,235.87,635.03,Single-ply,SBD,M
Div 2,124.74+,1,Nate Brown,Kennedale,160.12,319.78,190.51,276.69,786.98,Single-ply,SBD,M
Div 2,124.74+,2,John Reyes #2,Rio Hondo,142.88,317.51,210.92,249.48,777.91,Single-ply,SBD,M
Div 2,124.74+,3,Patrick Hudson,Silsbee,149.32,290.3,192.78,283.5,766.57,Single-ply,SBD,M
Div 2,124.74+,4,Francisco Moreno #1,Zapata,134.54,306.17,176.9,258.55,741.62,Single-ply,SBD,M
Div 2,124.74+,5,Eduardo Sanchez,Zapata,143.24,278.96,195.04,267.62,741.62,Single-ply,SBD,M
Div 2,124.74+,6,Wyatt Santos,Van,148.78,290.3,188.24,263.08,741.62,Single-ply,SBD,M
Div 2,124.74+,7,Garrett Jarrell,Buna,151.05,265.35,183.7,276.69,725.75,Single-ply,SBD,M
Div 2,124.74+,8,Marques Robinson,Waco Connally,139.71,297.1,145.15,249.48,691.73,Single-ply,SBD,M
Div 2,124.74+,9,Jeremy Garza,Snyder,134.72,260.82,181.44,238.14,680.39,Single-ply,SBD,M
Div 2,124.74+,10,Nicolas Franco,Pecos,163.02,283.5,181.44,215.46,680.39,Single-ply,SBD,M
Div 2,124.74+,11,Tristan Fritch,Van,173.73,272.16,163.29,210.92,646.37,Single-ply,SBD,M
Div 2,124.74+,DQ,Jordan Wells,Navasota,131.36,310.71,,,,Single-ply,SBD,M
Div 2,124.74+,DQ,Michael Castle,Argyle,150.23,,,,,Single-ply,SBD,M
