Name,Event,Equipment,Division,BodyweightKg,WeightClassKg,Squat1Kg,Squat2Kg,Squat3Kg,Squat4Kg,Best3SquatKg,Bench1Kg,Bench2Kg,Bench3Kg,Bench4Kg,Best3BenchKg,Deadlift1Kg,Deadlift2Kg,Deadlift3Kg,Deadlift4Kg,Best3DeadliftKg,TotalKg,Sex,Place
Rose Griffiths,SBD,Wraps,F_MCR_2_CPF,56,56,80,85,90,,90,40,-42.5,-42.5,,40,105,115,-117.5,,115,245,F,1
Sydney Johnson,SBD,Raw,F_TCR_1_CPF,53.7,56,92.5,102.5,110,,110,47.5,52.5,55,,55,140,150,160,,160,325,F,1
Alora Griffiths,SBD,Wraps,F_OCR_CPF,59.6,60,155,165,175,,175,85,92.5,,,92.5,162.5,172.5,177.5,,177.5,445,F,1
Courtney Ustrzycki,SBD,Wraps,F_OCR_CPF,51.1,52,77.5,82.5,-85,,82.5,47.5,50,-52.5,,50,120,125,127.5,,127.5,260,F,1
Alysha Shepherd,SBD,Wraps,F_JCR_CPF,74.3,75,140,147.5,152.5,,152.5,80,85,-95,,85,160,167.5,182.5,,182.5,420,F,1
Sadie Kopp-Duong,SBD,Wraps,F_JCR_CPF,68.9,75,85,95,-100,,95,45,-55,-55,,45,85,95,110,,110,250,F,2
Gary Bobrovitz,SBD,Raw,M_MR_6_CPF,58.8,60,60,62.5,,,62.5,105,110,,,110,57.5,60,,,60,232.5,M,1
Parker Boyd,SBD,Raw,M_TR_2_CPF,138.3,140,205,225,235,,235,120,130,142.5,,142.5,252.5,272.5,-280,,272.5,650,M,1
Zain Spoenlein,SBD,Raw,M_TR_1_CPF,81.5,82.5,25,,,,25,102.5,115,120,-125,120,160,-180,-180,,160,305,M,2
Colin Mullaney,SBD,Wraps,M_MCR_3_CPF,89,90,-165,175,185,192.5,185,135,145,150,,150,175,202.5,-215,,202.5,537.5,M,1
Ricardo Machado,SBD,Wraps,M_MCR_2_CPF,107.9,110,250,267.5,272.5,,272.5,152.5,-162.5,,,152.5,232.5,-242.5,-242.5,,232.5,657.5,M,1
Jeff Stubbings,SBD,Wraps,M_MCR_2_CPF,96.4,100,-215,220,-227.5,,220,-120,120,,,120,-260,260,,,260,600,M,1
Daryl Avent,SBD,Wraps,M_SCR_CPF,80.6,82.5,150,160,-167.5,,160,120,125,-127.5,,125,190,200,-210,,200,485,M,1
Tallyson Neves,SBD,Raw,M_OR_CPF,89.2,90,240,250,257.5,,257.5,155,165,-170,,165,280,292.5,300,307.5,300,722.5,M,1
Shayne Finoro,SBD,Raw,M_OR_CPF,82,82.5,215,227.5,237.5,,237.5,145,152.5,157.5,,157.5,237.5,250,-260,,250,645,M,1
Mark Hoover,SBD,Raw,M_OR_CPF,74.3,75,180,192.5,-202.5,,192.5,142.5,150,-160,,150,225,240,-250,,240,582.5,M,1
Scott McLelland,SBD,Raw,M_OR_CPF,90,90,205,220,227.5,,227.5,120,132.5,-142.5,,132.5,250,272.5,277.5,,277.5,637.5,M,2
Matt Gibson #1,SBD,Raw,M_OR_CPF,120.8,125,182.5,202.5,225,,225,142.5,150,160,,160,272.5,285,-305,,285,670,M,1
Adam Jackson #1,SBD,Raw,M_OR_CPF,89.6,90,187.5,195,205,,205,110,122.5,-137.5,,122.5,227.5,237.5,250,,250,577.5,M,3
Matthew Lyons,SBD,Raw,M_OR_CPF,109.1,110,180,192.5,200,,200,127.5,132.5,137.5,,137.5,252.5,265,275,,275,612.5,M,1
Kyle Hayes,SBD,Raw,M_JR_CPF,73.6,75,167.5,185,190,,190,122.5,130,-140,,130,230,242.5,255,,255,575,M,1
Francesco Catalano,SBD,Wraps,M_OCR_CPF,81.9,82.5,252.5,267.5,277.5,,277.5,172.5,180,-185,,180,265,280,287.5,,287.5,745,M,1
Jake Warrington,SBD,Wraps,M_OCR_CPF,99.1,100,265,290,-300,,290,175,185,-195,,185,315,335,-345,,335,810,M,1
Stuart Locke,SBD,Wraps,M_OCR_CPF,115.3,125,300,320,332.5,,332.5,165,177.5,187.5,,187.5,285,305,322.5,,322.5,842.5,M,1
Brandon Polo,SBD,Wraps,M_OCR_CPF,99.3,100,285,-302.5,302.5,,302.5,160,170,-182.5,,170,310,-322.5,,,310,782.5,M,2
Brad Gold,SBD,Wraps,M_OCR_CPF,124.1,125,265,280,285,,285,187.5,200,-210,,200,325,337.5,,,337.5,822.5,M,2
Josh Newbigging,SBD,Wraps,M_OCR_CPF,88.8,90,252.5,-262.5,262.5,,262.5,152.5,160,165,,165,-300,300,-312.5,,300,727.5,M,1
Gage Stephens,SBD,Wraps,M_OCR_CPF,147.2,,312.5,-332.5,-332.5,,312.5,200,217.5,-222.5,,217.5,307.5,320,-327.5,,320,850,M,1
Tony Colarossi,SBD,Wraps,M_OCR_CPF,104.8,110,242.5,265,-277.5,,265,145,155,165,,165,280,-295,295,,295,725,M,2
Chris Goodman,SBD,Wraps,M_OCR_CPF,124.9,125,260,272.5,-295,,272.5,182.5,192.5,-200,,192.5,287.5,-305,,,287.5,752.5,M,3
John Krawec,SBD,Wraps,M_OCR_CPF,108.5,110,237.5,255,-267.5,,255,125,145,-157.5,,145,260,280,-295,,280,680,M,3
Ludovik Gagnon,SBD,Wraps,M_OCR_CPF,98,100,210,-215,-215,,210,150,-155,-155,,150,270,277.5,290,,290,650,M,3
Richard Therrien,SBD,Wraps,M_OCR_CPF,83.5,90,180,195,202.5,,202.5,142.5,150,-157.5,,150,205,227.5,235,,235,587.5,M,2
Shane Peers,SBD,Wraps,M_OCR_CPF,109.4,110,215,227.5,-235,,227.5,145,155,-165,,155,227.5,250,-270,,250,632.5,M,4
David Di Donato,SBD,Wraps,M_OCR_CPF,89.2,90,182.5,192.5,-200,,192.5,122.5,130,137.5,,137.5,200,217.5,227.5,,227.5,557.5,M,3
Rino Matarazzo,SBD,Wraps,M_OCR_CPF,102.5,110,177.5,187.5,-192.5,,187.5,130,-137.5,-137.5,,130,230,242.5,252.5,,252.5,570,M,5
Mark Rizkallah,SBD,Wraps,M_OCR_CPF,73.9,75,155,172.5,-177.5,,172.5,80,87.5,-92.5,,87.5,160,180,195,,195,455,M,2
Austin Dorotea,SBD,Wraps,M_JCR_CPF,74.3,75,182.5,190,-200,,190,130,135,-140,,135,202.5,220,-230,,220,545,M,1
Chris Shino,SBD,Wraps,M_JCR_CPF,81.9,82.5,180,200,-227.5,,200,127.5,-147.5,-147.5,,127.5,220,-250,,,220,547.5,M,2
Bob Tran,SBD,Wraps,M_JCR_CPF,81.4,82.5,225,250,-260,,250,-35,35,45,,45,150,160,180,,180,475,M,3
Jean-Christophe Dubé,SBD,Wraps,M_JCR_CPF,98.5,100,250,-272.5,,,250,165,175,-180,,175,-302.5,,,,,,M,DQ
AJ Campbell,SBD,Wraps,M_JCR_CPF,81.5,82.5,217.5,-225,-225,,217.5,115,-125,-125,,115,-260,,,,,,M,DQ
Nigel Morton,SBD,Wraps,M_OCR_CPF,125.9,140,275,290,300,,300,180,190,195,,195,270,290,-305,,290,785,M,1
Vano Veshaguri,BD,Raw,M_OR_CPF,92.4,100,,,,,,140,150,160,,160,200,220,,,220,380,M,1
Adam Colorado,BD,Raw,M_OCR_CPF,105.2,110,,,,,,157.5,172.5,-185,,172.5,-307.5,307.5,317.5,,317.5,490,M,1
Josh Bartlett,SBD,Wraps,M_OCR_CPF,108.6,110,230,240,247.5,,247.5,175,-182.5,182.5,,182.5,290,300,310,318,310,740,M,1
Morgan Hunter,SBD,Raw,M_JR_CPF,86.8,90,105,120,130,,130,62.5,-80,80,,80,145,165,-172.5,,165,375,M,2
Jeff Iorio,SBD,Wraps,M_MCR_3_CPF,95,100,132.5,-147.5,155,,155,132.5,-142.5,-142.5,,132.5,172.5,192.5,200,,200,487.5,M,1
Alex Massiah,SBD,Raw,M_OR_CPF,102.4,110,175,185,-192.5,,185,102.5,110,-115,,110,192.5,205,-210,,205,500,M,2
Gregg Napier,SBD,Wraps,M_OCR_CPF,89.3,90,-152.5,162.5,172.5,,172.5,-95,102.5,-112.5,,102.5,197.5,-212.5,-220,,197.5,472.5,M,4
Jeff Spoenlein,SBD,Raw,M_TR_1_CPF,103.5,110,130,145,-152.5,,145,130,-145,-152.5,,130,185,215,227.5,,227.5,502.5,M,1
Alexander Friebe,SBD,Raw,M_JR_CPF,87.6,90,155,-172.5,-177.5,,155,115,-132.5,-132.5,,115,205,220,227.5,,227.5,497.5,M,1
David Erhard,SBD,Raw,M_MR_3_CPF,120.6,125,,,,,,152.5,160,167.5,-172.5,167.5,190,215,230,,230,,M,DQ
Sean McCoy,SBD,Wraps,M_SCR_CPF,119.1,125,210,215,-220,,215,152.5,-160,-160,,152.5,235,242.5,247.5,,247.5,615,M,1
Cody McLellan,SBD,Raw,M_OR_CPF,121.6,125,182.5,192.5,197.5,,197.5,140,145,150,,150,240,-247.5,247.5,,247.5,595,M,3
Chris Jackson #1,SBD,Raw,M_OR_CPF,123.1,125,250,260,-262.5,,260,150,157.5,-162.5,,157.5,237.5,-260,-260,,237.5,655,M,2
Andrew Burwell,SBD,Raw,M_MR_3_CPF,155.3,140+,240,250,-255,,250,175,-185,-185,,175,265,-272.5,-272.5,,265,690,M,1
Jamie Lee Gleason,SBD,Raw,F_TR_1_CPF,45.7,48,-67.5,67.5,72.5,-75,72.5,42.5,-45,-45,,42.5,92.5,97.5,102.5,105,102.5,217.5,F,1
Lynda Todd,SBD,Wraps,F_MCR_1_CPF,55.9,56,62.5,-67.5,67.5,,67.5,-45,45,-52.5,,45,92.5,95,-100,,95,207.5,F,1
Jessica Hamilton,SBD,Raw,F_OR_CPF,47.8,48,75,80,-85,,80,42.5,-47.5,47.5,,47.5,95,102.5,112.5,,112.5,240,F,1
Rosa Caietta,SBD,Raw,F_OR_CPF,58.9,60,90,-95,-95,,90,50,52.5,-55,,52.5,100,107.5,115,,115,257.5,F,2
Natalie Shwartz,SBD,Raw,F_SR_CPF,63.9,67.5,85,90,97.5,,97.5,55,60,-62.5,,60,100,107.5,-112.5,,107.5,265,F,2
Sue Lundrigan,SBD,Raw,F_MR_4_CPF,51.6,52,70,75,80,,80,42.5,45,-46,,45,105,112.5,-117.5,,112.5,237.5,F,1
Judy Mansfield,SBD,Wraps,F_MCR_3_CPF,56.7,60,60,65,70,,70,45,47.5,-50,,47.5,105,110,-115,,110,227.5,F,1
Melissa Sklepetas,SBD,Raw,F_OR_CPF,54.2,56,82.5,90,92.5,,92.5,57.5,60,-62.5,,60,105,112.5,120,,120,272.5,F,1
Hollie Rau,SBD,Raw,F_SR_CPF,64.8,67.5,-105,105,-110,,105,50,52.5,55,,55,115,127.5,-140,,127.5,287.5,F,1
Josiane Boulet,SBD,Wraps,F_SCR_CPF,64,67.5,95,-105,107.5,,107.5,55,-60,-60,,55,125,135,-145,,135,297.5,F,1
Rachel Younker,SBD,Wraps,F_OCR_CPF,55.2,56,97.5,105,110,,110,60,62.5,65,,65,137.5,145,150,,150,325,F,2
Stefanie Bender,SBD,Raw,F_OR_CPF,64.7,67.5,95,102.5,112.5,,112.5,52.5,60,-65,,60,140,150,-157.5,,150,322.5,F,1
Christine Beauchamp,SBD,Wraps,F_OCR_CPF,63.4,67.5,130,137.5,-142.5,,137.5,60,67.5,72.5,,72.5,152.5,162.5,170,,170,380,F,2
Stacey Jensen,SBD,Wraps,F_OCR_CPF,65.4,67.5,142.5,147.5,-152.5,,147.5,77.5,82.5,-87.5,,82.5,155,167.5,-175,,167.5,397.5,F,1
Sara Scanlon,SBD,Wraps,F_OCR_CPF,67.4,67.5,112.5,120,127.5,,127.5,57.5,60,-62.5,,60,157.5,167.5,172.5,,172.5,360,F,3
Robin Abbott,SBD,Wraps,F_MCR_1_CPF,67.4,67.5,70,77.5,-82.5,,77.5,42.5,45,-50,,45,90,100,-105,,100,222.5,F,1
Emanuel Ugarte,SBD,Raw,M_TR_1_CPF,59.3,60,75,80,85,90.5,85,55,-57.5,60,,60,90,95,100,110,100,245,M,1
Kristina De Dieu,SBD,Raw,F_JR_CPF,123,90+,-80,80,92.5,,92.5,42.5,52.5,-62.5,,52.5,100,112.5,125,,125,270,F,1
Chelsey Blanchard,SBD,Raw,F_OR_CPF,76.9,82.5,97.5,105,-112.5,,105,47.5,52.5,-55,,52.5,125,132.5,-140,,132.5,290,F,2
Elizabeth Small,SBD,Raw,F_OR_CPF,75.9,82.5,95,100,110,,110,52.5,-60,-60,,52.5,125,137.5,150,,150,312.5,F,1
Abbigayle Whiteland,SBD,Raw,F_TR_1_CPF,75,75,92.5,97.5,105,-113,105,52.5,-57.5,-57.5,,52.5,135,142.5,147.5,151,147.5,305,F,1
Susanne Carnelos,SBD,Raw,F_MCR_1_CPF,88.6,90,102.5,-110,-115,,102.5,55,60,-65,,60,140,150,157.5,,157.5,320,F,1
Maria Nikolajev,SBD,Raw,F_SR_CPF,74.9,75,127.5,-132.5,-137.5,,127.5,-77.5,-82.5,-82.5,,,142.5,-152.5,-155,,142.5,,F,DQ
Kayla Bondy,SBD,Wraps,F_OCR_CPF,71.7,75,122.5,130,-135,,130,67.5,-75,75,,75,147.5,155,-162.5,,155,360,F,1
Michael Milton,SBD,Raw,M_MR_4_CPF,79.9,82.5,142.5,150,155,,155,115.5,120,-125,,120,150,170,-177.5,,170,445,M,1
Pete Barbeau,SBD,Raw,M_OR_CPF,57.5,60,-132.5,137.5,-150,,137.5,85,92.5,-97.5,,92.5,170,185,192.5,-200,192.5,422.5,M,1
Kyle St Denis,SBD,Raw,M_JR_CPF,66.8,67.5,142.5,-150,-152.5,,142.5,102.5,105,-110.5,,105,185,197.5,211,-212,211,,M,DQ
James Le,SBD,Raw,M_OR_CPF,72.7,75,-140,-140,140,,140,112.5,117.5,127.5,,127.5,192.5,205,222.5,,222.5,490,M,2
Luke Jordan,SBD,Wraps,M_JCR_CPF,80.1,82.5,-205,212.5,-232.5,,212.5,125,130,-135,,130,227.5,250,265,,265,607.5,M,1
Phil Steeves,SBD,Raw,M_MR_4_CPF,80,82.5,110,115,120,,120,90,102.5,-115,,102.5,147.5,165,182.5,,182.5,405,M,2
James Moulden,SBD,Wraps,M_JCR_CPF,78.7,82.5,147.5,155,160,,160,105,-112.5,-112.5,,105,157.5,167.5,172.5,,172.5,437.5,M,4
Roy Zhang,SBD,Wraps,M_TCR_1_CPF,88,90,-142.5,150,160,,160,75,,,,75,157.5,170,180,,180,415,M,1
Daniel Galati,SBD,Wraps,M_OCR_CPF,73.6,75,152.5,160,-180,,160,100,105,-110,,105,165,177.5,190,,190,455,M,1
Alex Hepburn,SBD,Raw,M_OR_CPF,82.1,82.5,160,172.5,-182.5,,172.5,130,-135,135,,135,182.5,200,-215,,200,507.5,M,3
Benjamin Friebe,SBD,Raw,M_TR_1_CPF,77.5,82.5,145,157.5,160,,160,110,120,-122.5,,120,190,200,-205,,200,480,M,1
John Veale,SBD,Raw,M_OR_CPF,80.3,82.5,165,172.5,180,,180,117.5,120,-122.5,,120,195,212.5,222.5,,222.5,522.5,M,2
