Division,WeightClassKg,Place,Name,Team,BodyweightKg,Best3SquatKg,Best3BenchKg,Best3DeadliftKg,TotalKg,Equipment,Event,Sex
Boys,51.71,1,Brandon Fernandez,Poteet,50.8,151.95,83.91,151.95,387.82,Single-ply,SBD,M
Boys,51.71,2,Jacob Guerrero,Yorktown,51.71,122.47,68.04,138.35,328.85,Single-ply,SBD,M
Boys,51.71,3,Gavin Gutierrez,Runge,51.71,104.33,63.5,120.2,288.03,Single-ply,SBD,M
Boys,51.71,4,Chris Reyes,San Antonio Brooks Academy,51.26,90.72,52.16,102.06,244.94,Single-ply,SBD,M
Boys,51.71,DQ,Garrison Vyvlecka,Jourdanton,43.09,65.77,34.02,,,Single-ply,SBD,M
Boys,55.79,1,Joe Fraga,Runge,55.34,129.27,65.77,142.88,337.93,Single-ply,SBD,M
Boys,55.79,2,Bryan Peralta,Yorktown,52.16,131.54,63.5,138.35,333.39,Single-ply,SBD,M
Boys,55.79,3,Tommy Bannon,San Antonio Cole,55.34,122.47,56.7,136.08,315.25,Single-ply,SBD,M
Boys,55.79,4,Yahil Sastre,San Antonio Cole,55.34,120.2,56.7,136.08,312.98,Single-ply,SBD,M
Boys,55.79,5,Eric Perez,San Antonio Brooks Academy,54.88,40.82,45.36,99.79,185.97,Single-ply,SBD,M
Boys,59.87,1,Adrian Valdez,Goliad,58.06,124.74,83.91,140.61,349.27,Single-ply,SBD,M
Boys,59.87,2,Fernando Estrada,San Antonio Brooks Academy,59.87,124.74,63.5,136.08,324.32,Single-ply,SBD,M
Boys,59.87,3,Ashton Gomez,Stockdale,56.7,106.59,65.77,122.47,294.84,Single-ply,SBD,M
Boys,59.87,DQ,Jay Guajardo,San Antonio Southside,58.06,131.54,,,,Single-ply,SBD,M
Boys,59.87,DQ,Regan Villarreal,Kenedy,59.87,136.08,65.77,,,Single-ply,SBD,M
Boys,67.13,1,Joseph Valdez,Kenedy,66.22,158.76,68.04,181.44,408.23,Single-ply,SBD,M
Boys,67.13,2,Lupe McGinnis,Yorktown,64.41,149.69,97.52,147.42,394.63,Single-ply,SBD,M
Boys,67.13,3,Joshua Legaspe,San Antonio Cole,64.41,124.74,65.77,142.88,333.39,Single-ply,SBD,M
Boys,67.13,DQ,Jose Ramirez #13,San Antonio Southside,64.86,154.22,,,,Single-ply,SBD,M
Boys,74.84,1,Marco Burkman-Fliag,San Antonio Cole,71.21,192.78,106.59,190.51,489.88,Single-ply,SBD,M
Boys,74.84,2,Alvin Amador,Kenedy,72.12,190.51,95.25,204.12,489.88,Single-ply,SBD,M
Boys,74.84,3,John Gamez,San Antonio Brooks Academy,69.4,183.7,108.86,195.04,487.61,Single-ply,SBD,M
Boys,74.84,4,Neil Vallejo,San Antonio Southside,74.84,167.83,97.52,204.12,469.47,Single-ply,SBD,M
Boys,74.84,5,Robert Mendez,Poth,69.94,163.29,108.86,151.95,424.11,Single-ply,SBD,M
Boys,74.84,6,Tristan Trevino,Poth,73.84,165.56,90.72,165.56,421.84,Single-ply,SBD,M
Boys,74.84,7,Francisco Huerta,Yoakum,70.31,165.56,74.84,165.56,405.97,Single-ply,SBD,M
Boys,74.84,8,Hayden Harris,Jourdanton,73.48,145.15,86.18,161.03,392.36,Single-ply,SBD,M
Boys,74.84,9,Adrian Flores,Kenedy,73.94,151.95,74.84,165.56,392.36,Single-ply,SBD,M
Boys,74.84,10,Ayden Walpole,Poth,71.49,142.88,90.72,142.88,376.48,Single-ply,SBD,M
Boys,74.84,11,Chris Verdin,Jourdanton,73.94,133.81,77.11,142.88,353.8,Single-ply,SBD,M
Boys,74.84,12,Joey Medina,San Antonio Cole,69.85,129.27,79.38,142.88,351.53,Single-ply,SBD,M
Boys,74.84,13,Xavier Cardenas,San Antonio Brooks Academy,70.31,117.93,61.23,136.08,315.25,Single-ply,SBD,M
Boys,74.84,14,Lars Nielson,San Antonio Brooks Academy,73.03,95.25,54.43,111.13,260.82,Single-ply,SBD,M
Boys,74.84,15,Lance Bergman,Yoakum,72.57,90.72,54.43,108.86,254.01,Single-ply,SBD,M
Boys,74.84,DQ,Carson Morris,Universal City Randolph,72.12,122.47,,,,Single-ply,SBD,M
Boys,82.1,1,Kyle Jones,Poth,81.83,254.01,113.4,244.94,612.35,Single-ply,SBD,M
Boys,82.1,2,Felix Delgado,Jourdanton,80.74,165.56,124.74,197.31,487.61,Single-ply,SBD,M
Boys,82.1,3,Mateo Abrego,Nixon Smiley,76.66,183.7,97.52,181.44,462.66,Single-ply,SBD,M
Boys,82.1,4,Tyler Felux,San Antonio Brooks Academy,79.38,142.88,97.52,188.24,428.64,Single-ply,SBD,M
Boys,82.1,5,Ammon Jones,San Antonio Cole,78.93,142.88,81.65,165.56,390.09,Single-ply,SBD,M
Boys,82.1,6,Ruben Perales,San Antonio Southside,78.02,124.74,88.45,165.56,378.75,Single-ply,SBD,M
Boys,82.1,7,Mason Vic,Jourdanton,78.47,124.74,79.38,165.56,369.68,Single-ply,SBD,M
Boys,82.1,8,Stone Amador,Jourdanton,80.29,102.06,88.45,127.01,317.51,Single-ply,SBD,M
Boys,82.1,DQ,Jerry Edlin,George West,77.56,,,,,Single-ply,SBD,M
Boys,82.1,DQ,Ethan Acevedo,Poteet,81.65,,,,,Single-ply,SBD,M
Boys,89.81,1,Michael Gomez #1,Poteet,89.81,242.67,106.59,199.58,548.85,Single-ply,SBD,M
Boys,89.81,2,Isaiah Foreman,San Antonio Southside,89.81,174.63,129.27,204.12,508.02,Single-ply,SBD,M
Boys,89.81,3,Brandon Basquez,Yoakum,84.37,192.78,111.13,192.78,496.68,Single-ply,SBD,M
Boys,89.81,4,George De Los Santos,Kenedy,87.32,183.7,92.99,183.7,460.4,Single-ply,SBD,M
Boys,89.81,5,Austin Montanez,San Antonio Cole,88,183.7,88.45,183.7,455.86,Single-ply,SBD,M
Boys,89.81,6,Cameron Mata,Yoakum,83.01,170.1,86.18,185.97,442.25,Single-ply,SBD,M
Boys,89.81,7,Michael Galvan,Jourdanton,83.91,183.7,74.84,183.7,442.25,Single-ply,SBD,M
Boys,89.81,8,Evan Lambert,Jourdanton,88.9,142.88,92.99,183.7,419.57,Single-ply,SBD,M
Boys,99.79,1,Moses Carrasco,Poteet,98.43,260.82,136.08,226.8,623.69,Single-ply,SBD,M
Boys,99.79,2,Tim Carrasco,Poteet,97.07,238.14,136.08,210.92,585.13,Single-ply,SBD,M
Boys,99.79,3,Juan Villalobos,Jourdanton,92.99,213.19,117.93,185.97,517.1,Single-ply,SBD,M
Boys,99.79,4,Michael Cespedes,Universal City Randolph,96.62,215.46,104.33,181.44,501.22,Single-ply,SBD,M
Boys,99.79,5,Xethan Teague,Jourdanton,92.53,163.29,97.52,213.19,474,Single-ply,SBD,M
Boys,99.79,6,Chris Keiser,Stockdale,99.79,156.49,108.86,163.29,428.64,Single-ply,SBD,M
Boys,99.79,7,Ethan Pompa,Yorktown,99.79,172.37,86.18,165.56,424.11,Single-ply,SBD,M
Boys,99.79,8,Corey Hunter,San Antonio Cole,95.71,145.15,74.84,138.35,358.34,Single-ply,SBD,M
Boys,99.79,9,Jared Rilkins,Universal City Randolph,94.8,127.01,102.06,117.93,347,Single-ply,SBD,M
Boys,99.79,DQ,Sean Allen,Poth,97.84,254.01,,,,Single-ply,SBD,M
Boys,109.77,1,Richard Villarreal,Kenedy,106.14,278.96,142.88,215.46,637.3,Single-ply,SBD,M
Boys,109.77,2,Logan Hebert,Stockdale,105.69,197.31,142.88,199.58,539.77,Single-ply,SBD,M
Boys,109.77,3,Richard Salazar #1,George West,105.23,215.46,113.4,208.65,537.51,Single-ply,SBD,M
Boys,109.77,4,Kevin Zaiontz,Poth,103.28,217.72,111.13,197.31,526.17,Single-ply,SBD,M
Boys,109.77,5,Deshawn Borders,Universal City Randolph,108.41,204.12,99.79,181.44,485.34,Single-ply,SBD,M
Boys,109.77,6,Brandon Glaspie,Universal City Randolph,107.05,199.58,106.59,176.9,483.08,Single-ply,SBD,M
Boys,109.77,7,Nick Sanchez,Poth,109.63,188.24,102.06,183.7,474,Single-ply,SBD,M
Boys,109.77,8,Dylan Lopez,Poth,106.87,158.76,86.18,158.76,403.7,Single-ply,SBD,M
Boys,109.77,9,Mathew Mariscal,Yoakum,103.42,142.88,77.11,122.47,342.46,Single-ply,SBD,M
Boys,124.74,1,Jacob Hernandez,Stockdale,120.66,249.48,176.9,219.99,646.37,Single-ply,SBD,M
Boys,124.74,2,Dalton Perry,Poth,122.97,226.8,129.27,199.58,555.65,Single-ply,SBD,M
Boys,124.74,3,Gabriel Heimer,San Antonio Brooks Academy,117.48,195.04,142.88,158.76,496.68,Single-ply,SBD,M
Boys,124.74+,1,Seth Ritchey,Poteet,132.9,278.96,129.27,226.8,635.03,Single-ply,SBD,M
Boys,124.74+,2,Kylar Valenzuela,Jourdanton,131.54,120.2,95.25,190.51,405.97,Single-ply,SBD,M
Boys,124.74+,3,David Casias,San Antonio Brooks Academy,157.4,156.49,72.57,174.63,403.7,Single-ply,SBD,M
Boys,124.74+,4,Justin Connell,Kenedy,135.17,158.76,83.91,158.76,401.43,Single-ply,SBD,M
Boys,,NS,Logan Arciba,George West,,,,,,Single-ply,SBD,M
Boys,,NS,Fernando Castillo,George West,,,,,,Single-ply,SBD,M
Boys,,NS,Aharon de los Santos,Yoakum,,,,,,Single-ply,SBD,M
Boys,,NS,Omar Gutiérrez Olave,Yoakum,,,,,,Single-ply,SBD,M
Boys,,NS,Maricio Pecina,Yoakum,,,,,,Single-ply,SBD,M
Boys,,NS,Miguel Buenrostro,Yoakum,,,,,,Single-ply,SBD,M
Boys,,NS,Andre Davis,Goliad,,,,,,Single-ply,SBD,M
Boys,,NS,Angel Hernandez #8,Goliad,,,,,,Single-ply,SBD,M
Boys,,NS,Vincent Tello,San Antonio Brooks Academy,,,,,,Single-ply,SBD,M
Boys,,NS,Brian Zapata,San Antonio Southside,,,,,,Single-ply,SBD,M
Boys,,NS,Geovanni Ortega,San Antonio Southside,,,,,,Single-ply,SBD,M
Boys,,NS,Carlos Castaneda,San Antonio Southside,,,,,,Single-ply,SBD,M
Boys,,NS,Xavier Espinoza,San Antonio Southside,,,,,,Single-ply,SBD,M
Boys,,NS,Nikoli Hernandez,San Antonio Southside,,,,,,Single-ply,SBD,M
Boys,,NS,Anithan Jimenez,Yoakum,,,,,,Single-ply,SBD,M
Boys,,NS,Alann Alvarado,Yoakum,,,,,,Single-ply,SBD,M
Boys,,NS,Chris Reed,San Antonio Cole,,,,,,Single-ply,SBD,M
Boys,,NS,Rafael Garza,Poteet,,,,,,Single-ply,SBD,M
Boys,,NS,Nemencio Tijerina,Poteet,,,,,,Single-ply,SBD,M
Boys,,NS,Chase Hafer,San Antonio Cole,,,,,,Single-ply,SBD,M
Boys,,NS,Garrett Garcia,Universal City Randolph,,,,,,Single-ply,SBD,M
Boys,,NS,Jacob Trujillo,Universal City Randolph,,,,,,Single-ply,SBD,M
Boys,,NS,Justin Cardenas,Pettus,,,,,,Single-ply,SBD,M
Boys,,NS,Devon Garrett,Pettus,,,,,,Single-ply,SBD,M
Boys,,NS,John Hodge,Pettus,,,,,,Single-ply,SBD,M
Boys,,NS,Rudy Orosco,Pettus,,,,,,Single-ply,SBD,M
Boys,,NS,Trevon Moore,Universal City Randolph,,,,,,Single-ply,SBD,M
Boys,,NS,Kyler Conkel,Stockdale,,,,,,Single-ply,SBD,M
Boys,,NS,Martin Guerrero,Yorktown,,,,,,Single-ply,SBD,M
Boys,,NS,Waylon Ramzinski,Stockdale,,,,,,Single-ply,SBD,M
Boys,,NS,Jeremy Voelkel,Stockdale,,,,,,Single-ply,SBD,M
Boys,,NS,Diego Rubio,Stockdale,,,,,,Single-ply,SBD,M
Boys,,NS,Josh Sanger,Yorktown,,,,,,Single-ply,SBD,M
Boys,,NS,Devin Leister,Yorktown,,,,,,Single-ply,SBD,M
