Division,WeightClassKg,Place,Name,Team,BodyweightKg,Best3SquatKg,Best3BenchKg,Best3DeadliftKg,TotalKg,Equipment,Event,Sex
Boys,55.79,1,D'Montre Brown,Cameron Yoe,54.98,158.76,90.72,185.97,435.45,Single-ply,SBD,M
Boys,59.87,1,Victor Aguilar #1,Caldwell,58.51,208.65,127.01,174.63,510.29,Single-ply,SBD,M
Boys,59.87,2,Issah Tanzini,Thrall,59.6,140.61,77.11,124.74,342.46,Single-ply,SBD,M
Boys,59.87,3,Chris Blaschke,Smithville,57.61,102.06,58.97,124.74,285.76,Single-ply,SBD,M
Boys,67.13,1,Alex Kyner,Thrall,66.5,170.1,111.13,181.44,462.66,Single-ply,SBD,M
Boys,67.13,2,Jamil Jackson,Giddings,61.05,142.88,108.86,181.44,433.18,Single-ply,SBD,M
Boys,67.13,3,Jared Cohan,Bryan Rudder,64.14,154.22,83.91,161.03,399.16,Single-ply,SBD,M
Boys,67.13,4,Daniel Iselt,Giddings,63.14,149.69,90.72,149.69,390.09,Single-ply,SBD,M
Boys,67.13,5,Esteban Nunez,Caldwell,66.68,147.42,70.31,154.22,371.95,Single-ply,SBD,M
Boys,67.13,6,Jose Martinez,Cameron Yoe,67.13,131.54,92.99,142.88,367.41,Single-ply,SBD,M
Boys,67.13,7,Clayton Stuart,Caldwell,66.41,124.74,,129.27,254.01,Single-ply,SD,M
Boys,82.1,1,DeRon Bullard,Giddings,75.02,217.72,127.01,208.65,553.38,Single-ply,SBD,M
Boys,82.1,2,Jesse Edwards,Thrall,75.02,174.63,120.2,197.31,492.15,Single-ply,SBD,M
Boys,74.84,3,Caleb Schneebeli,Bryan Rudder,74.84,174.63,115.67,199.58,489.88,Single-ply,SBD,M
Boys,74.84,4,Willie Lavan,Cameron Yoe,68.4,154.22,99.79,226.8,480.81,Single-ply,SBD,M
Boys,74.84,5,Logan Jones,Caldwell,71.67,167.83,92.99,163.29,424.11,Single-ply,SBD,M
Boys,74.84,6,Keith Jaynes,Smithville,73.94,136.08,92.99,145.15,374.21,Single-ply,SBD,M
Boys,74.84,DQ,Alex Hunter,Giddings,70.4,,,,,Single-ply,SBD,M
Boys,82.1,1,Tyler McCoy,Giddings,79.83,233.6,142.88,226.8,603.28,Single-ply,SBD,M
Boys,82.1,2,Auston Ellis,Bryan Rudder,82.01,213.19,136.08,213.19,562.45,Single-ply,SBD,M
Boys,82.1,3,Thomas Ewing,Giddings,80.65,208.65,113.4,229.06,551.11,Single-ply,SBD,M
Boys,82.1,4,Brandon Lincoln,Smithville,81.47,183.7,122.47,204.12,510.29,Single-ply,SBD,M
Boys,82.1,5,Deondra Acosta,Giddings,77.93,163.29,111.13,192.78,467.2,Single-ply,SBD,M
Boys,89.81,6,Issac Leal,Thrall,82.19,129.27,111.13,136.08,376.48,Single-ply,SBD,M
Boys,82.1,DQ,Joseph Mendoza,Giddings,76.75,,,,,Single-ply,SBD,M
Boys,82.1,DQ,Sotero Lara,Giddings,75.57,,,,,Single-ply,SBD,M
Boys,89.81,1,Jonathan Massey,Caldwell,86.82,219.99,127.01,192.78,539.77,Single-ply,SBD,M
Boys,89.81,2,DaAaron Jackson,Smithville,86.09,197.31,115.67,201.85,514.83,Single-ply,SBD,M
Boys,89.81,3,Zac Martsching,Thrall,86.55,174.63,124.74,174.63,474,Single-ply,SBD,M
Boys,99.79,4,Jake Dawson,Smithville,89.99,185.97,97.52,172.37,455.86,Single-ply,SBD,M
Boys,89.81,5,Kade Hurta,Smithville,88.45,161.03,92.99,170.1,424.11,Single-ply,SBD,M
Boys,99.79,6,Joe Gonzales,Cameron Yoe,89.9,136.08,106.59,,242.67,Single-ply,SB,M
Boys,89.81,DQ,Justin Stautz,Thrall,84.73,,,,,Single-ply,SB,M
Boys,99.79,1,Deon Hutchinson,Giddings,94.71,249.48,151.95,249.48,650.91,Single-ply,SBD,M
Boys,99.79,2,Juan Nunez,Caldwell,97.52,235.87,147.42,222.26,605.55,Single-ply,SBD,M
Boys,99.79,3,Heath Antwan,Caldwell,96.34,226.8,129.27,229.06,585.13,Single-ply,SBD,M
Boys,99.79,4,Kegan Bledsoe,Smithville,98.16,215.46,95.25,181.44,492.15,Single-ply,SBD,M
Boys,109.77,1,Cameron Mueck,Cameron Yoe,106.14,172.37,104.33,165.56,442.25,Single-ply,SBD,M
Boys,109.77,2,Juan Valverde,Cameron Yoe,107.32,181.44,95.25,154.22,430.91,Single-ply,SBD,M
Boys,109.77,3,Chris Marquez,Giddings,102.97,206.38,,183.7,390.09,Single-ply,SD,M
Boys,124.74,1,Roberto Requena,Caldwell,110.86,183.7,120.2,204.12,508.02,Single-ply,SBD,M
Boys,124.74,2,Ethan Allen,Giddings,116.94,204.12,102.06,181.44,487.61,Single-ply,SBD,M
Boys,124.74,3,Zackary Handrick,Giddings,112.04,183.7,120.2,165.56,469.47,Single-ply,SBD,M
Boys,124.74+,1,Brian Cain,Thrall,149.32,285.76,172.37,217.72,675.85,Single-ply,SBD,M
Boys,124.74+,2,Jonathon Ramirez,Giddings,149.23,254.01,181.44,226.8,662.24,Single-ply,SBD,M
Boys,124.74+,3,Michael Price,Giddings,141.34,183.7,124.74,,308.44,Single-ply,SB,M
Boys,124.74+,4,Danny Bricker,Giddings,149.87,254.01,,,254.01,Single-ply,S,M
Boys,124.74+,DQ,LaPear Willrich,Giddings,137.8,,,,,Single-ply,S,M
